k	x_k	x_k1	x_k1 - x_k	y_k	y_k1	y_k1 - y_k	z_k	z_k1	z_k1 - z_k
0	-0.0167	-0.0021	0.0146		-0.1000	0.0100	0.1100		1.0000	1.0556	0.0556
1	-0.0021	0.0011	0.0032		0.0100	0.0068	-0.0032		1.0556	0.9957	-0.0599
2	0.0011	0.0001	-0.0011		0.0068	-0.0011	-0.0079		0.9957	0.9962	0.0005
3	0.0001	-0.0001	-0.0002		-0.0011	-0.0004	0.0007		0.9962	1.0005	0.0043
4	-0.0001	0.0000	0.0001		-0.0004	0.0001	0.0005		1.0005	1.0002	-0.0003
res:	-0.0001	-0.0004	1.0005
