 Метод Зейделя
k	x_k	x_k1	x_k1 - x_k	y_k	y_k1	y_k1 - y_k	z_k	z_k1	z_k1 - z_k
0	-0.0167	-0.0021	0.0146		-0.1000	0.0013	0.1013		1.0000	1.0001	0.0001
1	-0.0021	0.0000	0.0021		0.0013	-0.0000	-0.0013		1.0001	1.0000	-0.0001
2	0.0000	-0.0000	-0.0000		-0.0000	-0.0000	0.0000		1.0000	1.0000	0.0000
res:	0.0000	-0.0000	1.0000
